// Jest Snapshot v1, https://goo.gl/fbAQLP

exports[`(Component) UserWalletSummary with default prop values renders and matches snapshot 1`] = `
<div
  className="UserWalletSummary"
>
  <Promo
    type="top"
  />
  <div
    className="main-content"
  >
    <div
      className="UserWalletSummary__item"
    >
      <div
        className="UserWalletSummary__item_top"
      >
        <Icon
          className="iconfont"
          style={
            Object {
              "marginRight": 10,
            }
          }
          theme="twoTone"
          twoToneColor="#2b78d6"
          type="thunderbolt"
        />
        <div
          className="UserWalletSummary__label"
        >
          <FormattedMessage
            defaultMessage="Whalestake"
            id="whalestake"
            values={Object {}}
          />
        </div>
        <div
          className="UserWalletSummary__value"
        >
          <span>
            <FormattedNumber
              value={0}
            />
             
          </span>
        </div>
      </div>
      <div
        className="UserWalletSummary__item_desc"
      >
        Influence tokens which allow you to earn more daily rewards and give you more bandwidth.
      </div>
    </div>
    <div
      className="UserWalletSummary__item"
    >
      <div
        className="UserWalletSummary__item_top"
      >
        <Icon
          className="iconfont"
          component={[Function]}
          style={
            Object {
              "marginRight": 10,
            }
          }
        />
        <div
          className="UserWalletSummary__label"
        >
          <FormattedMessage
            defaultMessage="WLS"
            id="wls"
            values={Object {}}
          />
        </div>
        <div
          className="UserWalletSummary__value"
        >
          <span>
            <FormattedNumber
              value={100}
            />
             
          </span>
        </div>
      </div>
      <div
        className="UserWalletSummary__item_desc"
      >
        Tradeable tokens that may be transferred anywhere at anytime. WLS can be converted to WHALESTAKE in a process called powering up.
      </div>
    </div>
    <div
      className="UserWalletSummary__item"
    >
      <div
        className="UserWalletSummary__item_top"
      >
        <Icon
          className="iconfont"
          component={null}
          style={
            Object {
              "color": "#2b78d6",
              "marginRight": 10,
            }
          }
        />
        <div
          className="UserWalletSummary__label"
        >
          Tip Balance
        </div>
        <div
          className="UserWalletSummary__value"
        >
          <FormattedNumber
            value={NaN}
          />
        </div>
      </div>
      <div
        className="UserWalletSummary__item_desc"
      >
        The amount of Whalestake you have put aside to tip others.
      </div>
    </div>
    <div
      className="UserWalletSummary__item"
    >
      <div
        className="UserWalletSummary__item_top"
      >
        <Icon
          className="iconfont"
          style={
            Object {
              "marginRight": 10,
            }
          }
          theme="twoTone"
          twoToneColor="#2b78d6"
          type="experiment"
        />
        <div
          className="UserWalletSummary__label"
        >
          <FormattedMessage
            defaultMessage="DaBa"
            id="DaBa"
            values={Object {}}
          />
        </div>
        <div
          className="UserWalletSummary__value"
        >
          0
          % 
          <span
            className="secondary-text"
          >
            (
            0
             / 
            0
            )
          </span>
        </div>
      </div>
      <div
        className="UserWalletSummary__item_desc"
      >
        Daily Bandwidth (in bytes).
      </div>
    </div>
  </div>
  <div
    className="main-content"
  >
    <div
      className="UserWalletSummary__item"
    >
      <div
        className="UserWalletSummary__item_top"
      >
        <Icon
          className="iconfont"
          style={
            Object {
              "color": "#2b78d6",
              "marginRight": 10,
            }
          }
          type="usergroup-add"
        />
        <div
          className="UserWalletSummary__label"
        >
          <FormattedMessage
            defaultMessage="Referral Link"
            id="your_referral_link"
            values={Object {}}
          />
        </div>
        <div
          className="UserWalletSummary__value"
        >
          <span
            className="secondary-text"
          >
            <BTooltip
              title="https://sharebits.io/wls_signup.html?r=undefined"
            >
              <Button
                block={false}
                ghost={false}
                htmlType="button"
                loading={false}
                onClick={[Function]}
                type="primary"
                value="https://sharebits.io/wls_signup.html?r=undefined"
              >
                Copy Referral Link to Clipboard
              </Button>
            </BTooltip>
          </span>
        </div>
      </div>
      <div
        className="UserWalletSummary__item_desc"
      >
        <p>
          Use your referral link to invite your friends to join Whaleshares.io, instantly.
        </p>
        <p>
          Read 
          <Link
            replace={false}
            to="/@whaleshares/3z5wde-instant-signup-now-available-for-whaleshares-via-twitter"
          >
            this post
          </Link>
           to learn about the details and how you can get rewarded yourself.
        </p>
      </div>
    </div>
  </div>
</div>
`;
