// Jest Snapshot v1, https://goo.gl/fbAQLP

exports[`<LatestComments /> renders without exploding 1`] = `
<div
  className="LatestComments"
>
  <div
    className="LatestComments__container"
  >
    <h4
      className="LatestComments__title"
    >
      <i
        className="iconfont icon-time LatestComments__icon"
      />
       
      <FormattedMessage
        defaultMessage="Latest Comments"
        id="latest_comments"
        values={Object {}}
      />
    </h4>
    <div
      className="LatestComments__divider"
    />
    <RenderComment
      author="sekhmet"
      created="2017-10-17T09:52:51"
      id={0}
      key="0"
      text="hello world"
    />
    <RenderComment
      author="fabien"
      created="2017-10-11T10:52:51"
      id={1}
      key="1"
      text="hi Busy"
    />
    <div
      className="LatestComments__divider"
    />
    <h4
      className="LatestComments__more"
    >
      <Link
        replace={false}
        to="/latest-comments"
      >
        <FormattedMessage
          defaultMessage="See All Comments"
          id="see_all_comments"
          values={Object {}}
        />
      </Link>
    </h4>
  </div>
</div>
`;
