// Jest Snapshot v1, https://goo.gl/fbAQLP

exports[`<Topics /> renders without exploding 1`] = `
<SidebarBlock
  content={
    <ul
      className="Interests__list"
    >
      <li>
        <Topic
          closable={false}
          favorite={false}
          name="animals"
        />
      </li>
      <li>
        <Topic
          closable={false}
          favorite={false}
          name="art"
        />
      </li>
      <li>
        <Topic
          closable={false}
          favorite={false}
          name="business"
        />
      </li>
      <li>
        <Topic
          closable={false}
          favorite={false}
          name="comedy"
        />
      </li>
      <li>
        <Topic
          closable={false}
          favorite={false}
          name="entertainment"
        />
      </li>
      <li>
        <Topic
          closable={false}
          favorite={false}
          name="family"
        />
      </li>
      <li>
        <Topic
          closable={false}
          favorite={false}
          name="finance"
        />
      </li>
      <li>
        <Topic
          closable={false}
          favorite={false}
          name="food"
        />
      </li>
      <li>
        <Topic
          closable={false}
          favorite={false}
          name="gaming"
        />
      </li>
      <li>
        <Topic
          closable={false}
          favorite={false}
          name="health"
        />
      </li>
      <li>
        <Topic
          closable={false}
          favorite={false}
          name="homesteading"
        />
      </li>
      <li>
        <Topic
          closable={false}
          favorite={false}
          name="industry"
        />
      </li>
      <li>
        <Topic
          closable={false}
          favorite={false}
          name="internet"
        />
      </li>
      <li>
        <Topic
          closable={false}
          favorite={false}
          name="introduceyourself"
        />
      </li>
      <li>
        <Topic
          closable={false}
          favorite={false}
          name="lifestyle"
        />
      </li>
      <li>
        <Topic
          closable={false}
          favorite={false}
          name="music"
        />
      </li>
      <li>
        <Topic
          closable={false}
          favorite={false}
          name="nature"
        />
      </li>
      <li>
        <Topic
          closable={false}
          favorite={false}
          name="off-topic"
        />
      </li>
      <li>
        <Topic
          closable={false}
          favorite={false}
          name="photography"
        />
      </li>
      <li>
        <Topic
          closable={false}
          favorite={false}
          name="poetry"
        />
      </li>
      <li>
        <Topic
          closable={false}
          favorite={false}
          name="politics"
        />
      </li>
      <li>
        <Topic
          closable={false}
          favorite={false}
          name="religion"
        />
      </li>
      <li>
        <Topic
          closable={false}
          favorite={false}
          name="science"
        />
      </li>
      <li>
        <Topic
          closable={false}
          favorite={false}
          name="society"
        />
      </li>
      <li>
        <Topic
          closable={false}
          favorite={false}
          name="sports"
        />
      </li>
      <li>
        <Topic
          closable={false}
          favorite={false}
          name="technology"
        />
      </li>
      <li>
        <Topic
          closable={false}
          favorite={false}
          name="travel"
        />
      </li>
      <li>
        <Topic
          closable={false}
          favorite={false}
          name="writing"
        />
      </li>
      <li>
        <Topic
          closable={false}
          favorite={false}
          name="whaleshares"
        />
      </li>
    </ul>
  }
  icon="tag"
  title={
    <FormattedMessage
      defaultMessage="Browse by Interest"
      id="browse_by_interest"
      values={Object {}}
    />
  }
/>
`;
