<svg id="diamond" xmlns="http://www.w3.org/2000/svg" viewBox="0 0 1024 1024">
  <defs>
    <style>
      .cls-1 {
        fill: none;
      }
    </style>
  </defs>
  <title>icon-diamond</title>
  <rect id="Rectangle" class="cls-1" width="1024" height="1024"/>
  <path class="cls-2" d="M511.8218,954.98a23.7328,23.7328,0,0,1-6.3316-.9287L505.3027,954l-.643-.1367a5.7278,5.7278,0,0,1-.7085-.1836l-.1026-.0332a7.5561,7.5561,0,0,1-.9111-.3848l-.1782-.0888-.1841-.0762c-.563-.2344-1.125-.4961-1.7676-.8242-.6889-.3467-1.3032-.69-1.9057-1.0635l-.251-.1553-.1314-.0644-.1181-.0831s-.3692-.2177-.4493-.2695l-.2011-.1279-.18-.1367c-.3052-.2325-.5444-.4463-.6841-.5723l-.1235-.11-.1294-.1045a23.8049,23.8049,0,0,1-1.8438-1.6368l-.1538-.1513-.1645-.1407a8.28,8.28,0,0,1-.6289-.5937L94.1987,504.95a9.289,9.289,0,0,1-1.1049-1.5239l-.1924-.3228-.3741-.478a18.18,18.18,0,0,1-1.8242-2.68,6.1194,6.1194,0,0,1-.372-.7886l-.0987-.2412a16.1078,16.1078,0,0,1-.6377-1.7973c-.0654-.2149-.1084-.3521-.1548-.4888l-.205-.5762a18.1582,18.1582,0,0,1-.91-3.1455,15.1936,15.1936,0,0,1-.2-2.3447l-.02-.5366-.0171-.26a20.593,20.593,0,0,1-.0171-3.5444,14.7882,14.7882,0,0,1,.43-2.315c.05-.1953.0854-.3422.1181-.4892a27.11,27.11,0,0,1,.8653-3.2368l.08-.2286.0615-.2343a6.6494,6.6494,0,0,1,.3413-.9864l.0312-.0683a9.6371,9.6371,0,0,1,.9009-1.5542l.292-.419.2163-.4624a10.94,10.94,0,0,1,1.0337-1.8051L258.957,241.1367c.0493-.0664.3355-.4263.3355-.4263a24.3528,24.3528,0,0,1,3.3115-3.5888,8.24,8.24,0,0,1,.8091-.6416l.1348-.0943.1293-.1015a25.091,25.091,0,0,1,3.3365-2.2246c.5888-.3208,1.1084-.5474,1.5263-.73l.294-.1284.28-.1421a13.58,13.58,0,0,1,1.57-.6914l.0718-.0254a8.9019,8.9019,0,0,1,1.1816-.3111l.1958-.0385.1929-.0513c.6216-.166,1.1792-.2783,1.6059-.3657l.083-.0166a24.2324,24.2324,0,0,1,3.0992-.4038l.2485-.0157.2466-.0361a7.3747,7.3747,0,0,1,1.0859-.0835h466.24a7.4485,7.4485,0,0,1,1.1133.0874l.2383.0361.24.0171a25.4379,25.4379,0,0,1,3.0987.4034c.581.1162,1.1191.2407,1.66.3857l.1944.0518.1982.039a8.7658,8.7658,0,0,1,1.1973.315,12.4693,12.4693,0,0,1,1.7021.7451l.5323.2553.2031.09c.3681.1621.8.3525,1.2783.6133a23.8,23.8,0,0,1,3.3144,2.2021l.1329.104.1377.0967a9.0714,9.0714,0,0,1,.7753.5957,24.7362,24.7362,0,0,1,3.4092,3.6641l.086.1142s.1982.2427.25.3111l164.75,230.8339.24.2637a24.2394,24.2394,0,0,1-1.5,34.1392l-.1895.1762-398.1865,440.53a7.4484,7.4484,0,0,1-.6435.6l-.1836.1524-.1709.166c-.5674.5488-1.1807,1.09-1.8252,1.6064l-.209.1748a10.4146,10.4146,0,0,1-.8467.6846,6.9663,6.9663,0,0,1-.6816.4248l-.1563.0869-.15.0948c-.6386.4043-1.3213.79-2.0869,1.1806-.5947.3047-1.166.5713-1.7636.8213l-.1749.0742-.17.084a8.1648,8.1648,0,0,1-1.0185.4268,5.7845,5.7845,0,0,1-.7344.1924l-.6455.1367-.2.0547A23.8625,23.8625,0,0,1,511.8218,954.98Zm0-99.0332L630.248,512.9614H393.3945Zm71.6128-58.0811,10.123,5.9815,262.94-290.8721H681.8057ZM430.0854,803.834l10.1226-5.9815L341.8374,512.9614H167.1445ZM698.6279,464.2261h165.41L752.5557,308.0352Zm-294.3413,0H622.4307l-110.36-164.6826Zm-244.6933,0H325.0146L271.0879,308.0347Zm206.4345-30.5406L466.7471,279.7827H312.8916Zm292.6079-2.9721L710.752,279.7827H557.4854Z"/>
</svg>
