<svg id="wallet" xmlns="http://www.w3.org/2000/svg" viewBox="0 0 958 702.5333">
  <defs>
    <style>
      .cls-1 {
        fill: #b9bff2;
      }
    </style>
  </defs>
  <title>icon-wallet</title>
  <g>
    <path class="cls-1" d="M893.2,163.7333H126.8c-52.69,0-95.8,43.11-95.8,95.8V770.4667c0,52.69,43.11,95.8,95.8,95.8H893.2c52.69,0,95.8-43.11,95.8-95.8V259.5333C989,206.8433,945.89,163.7333,893.2,163.7333Zm0,638.6667H126.8a32.0272,32.0272,0,0,1-31.9333-31.9333V259.5333A32.0272,32.0272,0,0,1,126.8,227.6H893.2a32.0272,32.0272,0,0,1,31.9333,31.9333v95.8h-287.4a159.6667,159.6667,0,0,0,0,319.3334h287.4v95.8A32.0272,32.0272,0,0,1,893.2,802.4Zm31.9333-191.6h-287.4c-52.69,0-95.8-43.11-95.8-95.8s43.11-95.8,95.8-95.8h287.4Z" transform="translate(-31 -163.7333)"/>
    <circle class="cls-1" cx="622.7" cy="351.2667" r="47.9"/>
  </g>
</svg>
