<svg id="reply" xmlns="http://www.w3.org/2000/svg" viewBox="0 0 1024 1024">
  <defs>
    <style>
      .cls-1 {
        fill: none;
      }
    </style>
  </defs>
  <title>icon-reply</title>
  <rect id="Rectangle" class="cls-1" width="1024" height="1024"/>
  <path class="cls-2" d="M841.781,949.545A88.8828,88.8828,0,0,1,796.606,937.12L630.9934,839.2542H204.112c-61.2671,0-111.112-49.323-111.112-109.95V274.4051c0-60.6266,49.8449-109.95,111.112-109.95h615.83c61.0429,0,110.715,49.3155,110.7272,109.9318L931,860.3842a89.2316,89.2316,0,0,1-89.219,89.1608ZM204.112,232.7214c-23.6254,0-42.8461,18.6993-42.8461,41.6837v454.899c0,22.9844,19.2207,41.6837,42.8461,41.6837H649.6571L831.3366,878.3506a20.7439,20.7439,0,0,0,10.5429,2.8886h.0019a20.8052,20.8052,0,0,0,20.8532-20.8156l-.3313-586.0152c0-22.9877-19.0475-41.687-42.4609-41.687Z"/>
  <path id="Combined-Shape" class="cls-2" d="M322.1594,553.84c-30.6917,0-55.5722-23.6365-55.5722-52.7936s24.88-52.7937,55.5722-52.7937,55.5723,23.6365,55.5723,52.7937S352.8512,553.84,322.1594,553.84Zm188.8589,0c-30.6917,0-55.5722-23.6365-55.5722-52.7936s24.88-52.7937,55.5722-52.7937,55.5723,23.6365,55.5723,52.7937S541.71,553.84,511.0183,553.84Zm188.859,0c-30.6918,0-55.5723-23.6365-55.5723-52.7936s24.8805-52.7937,55.5723-52.7937S755.45,471.8887,755.45,501.0459,730.569,553.84,699.8773,553.84Z"/>
</svg>
