<svg id="Layer_1" data-name="Layer 1" xmlns="http://www.w3.org/2000/svg" viewBox="0 0 1024 1024">
  <defs>
    <style>
      .cls-1 {
        fill: none;
      }

      .cls-2 {
        fill: #2b78d6;
      }

      .cls-3 {
        fill: #e0f1fc;
      }
    </style>
  </defs>
  <title>ico-wls-coin</title>
  <rect id="Rectangle" class="cls-1" width="1024" height="1024"/>
  <circle class="cls-2" cx="512" cy="512" r="512"/>
  <circle class="cls-3" cx="512" cy="512" r="440"/>
  <polygon class="cls-2" points="312.957 489.096 274.455 632.706 218.245 632.706 157 398.284 218.895 398.284 250.087 553.753 253.011 553.753 290.538 398.284 338.3 398.284 377.126 553.753 380.05 553.753 410.754 398.284 472.162 398.284 410.917 632.706 355.032 632.706 315.881 489.096 312.957 489.096"/>
  <polygon class="cls-2" points="649.204 583.482 649.204 632.706 489.998 632.706 489.998 398.284 549.619 398.284 549.619 583.482 649.204 583.482"/>
  <path class="cls-2" d="M651.5921,565.9369h56.8592c1.4621,17.0577,18.52,27.9423,43.213,27.9423,22.2563,0,37.527-10.7221,37.527-26.1553,0-12.9964-10.2346-19.9819-37.04-25.3429l-30.8664-6.1733c-42.8881-8.1228-64.9819-31.5163-64.9819-68.3935,0-45.8122,36.7147-75.8663,93.249-75.8663,54.91,0,92.9241,29.7292,93.8989,73.1046H788.379c-1.2995-16.57-17.0577-28.1047-38.0144-28.1047s-34.7652,9.91-34.7652,25.5054c0,12.8339,10.397,20.3069,35.09,25.18l30.2167,5.8484c46.3,8.935,67.0938,29.8916,67.0938,67.0938,0,48.8989-37.3646,78.4656-98.7725,78.4656C689.9315,639.0415,652.5669,611.0993,651.5921,565.9369Z"/>
</svg>
